[
  {
    "course": "4",
    "date": "28.05.2019",
    "format": 0,
    "group": "4 ДО",
    "name": "Комплексний державний іспит з прикладної математики",
    "room_data": [
      {
        "housing": null,
        "room_floor": null,
        "room_num": "234"
      }
    ],
    "short_name": "КДІПМ",
    "teachers": [
      {
        "degree": 2,
        "fisrt_name": "В",
        "full_name": "Кулян В.Р.",
        "last_name": "Кулян",
        "middle_name": "Р"
      },
      {
        "degree": 2,
        "fisrt_name": "В",
        "full_name": "Кузенко В.Ф.",
        "last_name": "Кузенко",
        "middle_name": "Ф"
      },
      {
        "degree": 2,
        "fisrt_name": "М",
        "full_name": "Коробова М.В.",
        "last_name": "Коробова",
        "middle_name": "В"
      },
      {
        "degree": 2,
        "fisrt_name": "О",
        "full_name": "Маринич О.В.",
        "last_name": "Маринич",
        "middle_name": "В"
      }
    ],
    "time": "14:00"
  },
  {
    "course": "4",
    "date": "28.05.2015",
    "format": 2,
    "group": "4 ДО",
    "name": "Комплексний державний іспит з прикладної математики",
    "room_data": [
      {
        "housing": null,
        "room_floor": null,
        "room_num": "234"
      }
    ],
    "short_name": "КДІПМ",
    "teachers": [
      {
        "degree": 2,
        "fisrt_name": "В",
        "full_name": "Кулян В.Р.",
        "last_name": "Кулян",
        "middle_name": "Р"
      },
      {
        "degree": 2,
        "fisrt_name": "В",
        "full_name": "Кузенко В.Ф.",
        "last_name": "Кузенко",
        "middle_name": "Ф"
      },
      {
        "degree": 2,
        "fisrt_name": "М",
        "full_name": "Коробова М.В.",
        "last_name": "Коробова",
        "middle_name": "В"
      },
      {
        "degree": 2,
        "fisrt_name": "О",
        "full_name": "Маринич О.В.",
        "last_name": "Маринич",
        "middle_name": "В"
      }
    ],
    "time": "14:00"
  },
  {
    "course": "4",
    "date": "15.04.2019",
    "format": 0,
    "group": "4 ДО",
    "name": "Сучасні проблеми теорії ймовірностей. Модуль 1. Теорія масового обслуговування. Модуль 2. Оптимальна зупинка ланцюгів Маркова",
    "room_data": [
      {
        "housing": null,
        "room_floor": null,
        "room_num": "33"
      }
    ],
    "short_name": "СПТЙМТМОМОЗЛМ",
    "teachers": [
      {
        "degree": 3,
        "fisrt_name": "О",
        "full_name": "Закусило О.К.",
        "last_name": "Закусило",
        "middle_name": "К"
      },
      {
        "degree": 2,
        "fisrt_name": "І",
        "full_name": "Самойленко І.В.",
        "last_name": "Самойленко",
        "middle_name": "В"
      }
    ],
    "time": "9:00"
  },
  {
    "course": "4",
    "date": "16.04.2019",
    "format": 2,
    "group": "4 ДО",
    "name": "Сучасні проблеми теорії ймовірностей. Модуль 1. Теорія масового обслуговування. Модуль 2. Оптимальна зупинка ланцюгів Маркова",
    "room_data": [
      {
        "housing": null,
        "room_floor": null,
        "room_num": "33"
      }
    ],
    "short_name": "СПТЙМТМОМОЗЛМ",
    "teachers": [
      {
        "degree": 3,
        "fisrt_name": "О",
        "full_name": "Закусило О.К.",
        "last_name": "Закусило",
        "middle_name": "К"
      },
      {
        "degree": 2,
        "fisrt_name": "І",
        "full_name": "Самойленко І.В.",
        "last_name": "Самойленко",
        "middle_name": "В"
      }
    ],
    "time": "9:00"
  },
  {
    "course": "4",
    "date": "17.04.2019",
    "format": 0,
    "group": "4 ДО",
    "name": "Математичні моделі ціноутворення опціонів",
    "room_data": [
      {
        "housing": null,
        "room_floor": null,
        "room_num": "14"
      }
    ],
    "short_name": "ММЦО",
    "teachers": [
      {
        "degree": 2,
        "fisrt_name": "Б",
        "full_name": "Довгай Б.В.",
        "last_name": "Довгай",
        "middle_name": "В"
      },
      {
        "degree": 2,
        "fisrt_name": "І",
        "full_name": "Самойленко І.В.",
        "last_name": "Самойленко",
        "middle_name": "В"
      }
    ],
    "time": "9:00"
  },
  {
    "course": "4",
    "date": "18.04.2019",
    "format": 2,
    "group": "4 ДО",
    "name": "Математичні моделі ціноутворення опціонів",
    "room_data": [
      {
        "housing": null,
        "room_floor": null,
        "room_num": "15"
      }
    ],
    "short_name": "ММЦО",
    "teachers": [
      {
        "degree": 2,
        "fisrt_name": "Б",
        "full_name": "Довгай Б.В.",
        "last_name": "Довгай",
        "middle_name": "В"
      },
      {
        "degree": 2,
        "fisrt_name": "І",
        "full_name": "Самойленко І.В.",
        "last_name": "Самойленко",
        "middle_name": "В"
      }
    ],
    "time": "9:00"
  },
  {
    "course": "4",
    "date": "22.04.2019",
    "format": 0,
    "group": "4 ДО",
    "name": "Ймовірнісний аналіз алгоритмів",
    "room_data": [
      {
        "housing": null,
        "room_floor": null,
        "room_num": "33"
      }
    ],
    "short_name": "ЙАА",
    "teachers": [
      {
        "degree": 3,
        "fisrt_name": "А",
        "full_name": "Юрачківський А.П.",
        "last_name": "Юрачківський",
        "middle_name": "П"
      },
      {
        "degree": 2,
        "fisrt_name": "О",
        "full_name": "Маринич О.В.",
        "last_name": "Маринич",
        "middle_name": "В"
      }
    ],
    "time": "9:00"
  },
  {
    "course": "4",
    "date": "23.04.2019",
    "format": 2,
    "group": "4 ДО",
    "name": "Ймовірнісний аналіз алгоритмів",
    "room_data": [
      {
        "housing": null,
        "room_floor": null,
        "room_num": "33"
      }
    ],
    "short_name": "ЙАА",
    "teachers": [
      {
        "degree": 3,
        "fisrt_name": "А",
        "full_name": "Юрачківський А.П.",
        "last_name": "Юрачківський",
        "middle_name": "П"
      },
      {
        "degree": 2,
        "fisrt_name": "О",
        "full_name": "Маринич О.В.",
        "last_name": "Маринич",
        "middle_name": "В"
      }
    ],
    "time": "9:00"
  },
  {
    "course": "4",
    "date": "04.06.2019",
    "format": 0,
    "group": "4 ДО",
    "name": "Захист кваліфікаційної роботи бакалавра",
    "room_data": [
      {
        "housing": null,
        "room_floor": null,
        "room_num": "234"
      }
    ],
    "short_name": "ЗКРБ",
    "teachers": [
      {
        "degree": 2,
        "fisrt_name": "В",
        "full_name": "Кулян В.Р.",
        "last_name": "Кулян",
        "middle_name": "Р"
      },
      {
        "degree": 2,
        "fisrt_name": "В",
        "full_name": "Кузенко В.Ф.",
        "last_name": "Кузенко",
        "middle_name": "Ф"
      },
      {
        "degree": 2,
        "fisrt_name": "М",
        "full_name": "Коробова М.В.",
        "last_name": "Коробова",
        "middle_name": "В"
      },
      {
        "degree": 2,
        "fisrt_name": "О",
        "full_name": "Маринич О.В.",
        "last_name": "Маринич",
        "middle_name": "В"
      }
    ],
    "time": "14:00"
  },
  {
    "course": "4",
    "date": "04.06.2019",
    "format": 2,
    "group": "4 ДО",
    "name": "Захист кваліфікаційної роботи бакалавра",
    "room_data": [
      {
        "housing": null,
        "room_floor": null,
        "room_num": "234"
      }
    ],
    "short_name": "ЗКРБ",
    "teachers": [
      {
        "degree": 2,
        "fisrt_name": "В",
        "full_name": "Кулян В.Р.",
        "last_name": "Кулян",
        "middle_name": "Р"
      },
      {
        "degree": 2,
        "fisrt_name": "В",
        "full_name": "Кузенко В.Ф.",
        "last_name": "Кузенко",
        "middle_name": "Ф"
      },
      {
        "degree": 2,
        "fisrt_name": "М",
        "full_name": "Коробова М.В.",
        "last_name": "Коробова",
        "middle_name": "В"
      },
      {
        "degree": 2,
        "fisrt_name": "О",
        "full_name": "Маринич О.В.",
        "last_name": "Маринич",
        "middle_name": "В"
      }
    ],
    "time": "14:00"
  },
  {
    "course": "4",
    "date": "15.04.2019",
    "format": 0,
    "group": "4 ІС",
    "name": "Функціональне програмування",
    "room_data": [
      {
        "housing": null,
        "room_floor": null,
        "room_num": "305"
      }
    ],
    "short_name": "ФП",
    "teachers": [
      {
        "degree": 2,
        "fisrt_name": "О",
        "full_name": "Галкін О.В.",
        "last_name": "Галкін",
        "middle_name": "В"
      },
      {
        "degree": 4,
        "fisrt_name": "Я",
        "full_name": "Ліндер Я.М.",
        "last_name": "Ліндер",
        "middle_name": "М"
      }
    ],
    "time": "9:00"
  },
  {
    "course": "4",
    "date": "16.04.2019",
    "format": 2,
    "group": "4 ІС",
    "name": "Функціональне програмування",
    "room_data": [
      {
        "housing": null,
        "room_floor": null,
        "room_num": "304"
      }
    ],
    "short_name": "ФП",
    "teachers": [
      {
        "degree": 2,
        "fisrt_name": "О",
        "full_name": "Галкін О.В.",
        "last_name": "Галкін",
        "middle_name": "В"
      },
      {
        "degree": 4,
        "fisrt_name": "Я",
        "full_name": "Ліндер Я.М.",
        "last_name": "Ліндер",
        "middle_name": "М"
      }
    ],
    "time": "9:00"
  },
  {
    "course": "4",
    "date": "17.04.2019",
    "format": 0,
    "group": "4 ІС",
    "name": "Математичні основи захисту інформації",
    "room_data": [
      {
        "housing": null,
        "room_floor": null,
        "room_num": "610"
      }
    ],
    "short_name": "МОЗІ",
    "teachers": [
      {
        "degree": 2,
        "fisrt_name": "Л",
        "full_name": "Катеринич Л.О.",
        "last_name": "Катеринич",
        "middle_name": "О"
      },
      {
        "degree": 3,
        "fisrt_name": "С",
        "full_name": "Кривий С.Л.",
        "last_name": "Кривий",
        "middle_name": "Л"
      }
    ],
    "time": "10:00"
  },
  {
    "course": "4",
    "date": "18.04.2019",
    "format": 2,
    "group": "4 ІС",
    "name": "Математичні основи захисту інформації",
    "room_data": [
      {
        "housing": null,
        "room_floor": null,
        "room_num": "312"
      }
    ],
    "short_name": "МОЗІ",
    "teachers": [
      {
        "degree": 2,
        "fisrt_name": "Л",
        "full_name": "Катеринич Л.О.",
        "last_name": "Катеринич",
        "middle_name": "О"
      },
      {
        "degree": 3,
        "fisrt_name": "С",
        "full_name": "Кривий С.Л.",
        "last_name": "Кривий",
        "middle_name": "Л"
      }
    ],
    "time": "9:00"
  },
  {
    "course": "4",
    "date": "22.04.2019",
    "format": 0,
    "group": "4 ІС",
    "name": "Комп'ютерні мережі",
    "room_data": [
      {
        "housing": null,
        "room_floor": null,
        "room_num": "305"
      }
    ],
    "short_name": "КМ",
    "teachers": [
      {
        "degree": 2,
        "fisrt_name": "Є",
        "full_name": "Іванов Є.О.",
        "last_name": "Іванов",
        "middle_name": "О"
      },
      {
        "degree": 2,
        "fisrt_name": "Є",
        "full_name": "Демківський Є.О.",
        "last_name": "Демківський",
        "middle_name": "О"
      }
    ],
    "time": "9:00"
  },
  {
    "course": "4",
    "date": "23.04.2019",
    "format": 2,
    "group": "4 ІС",
    "name": "Комп'ютерні мережі",
    "room_data": [
      {
        "housing": null,
        "room_floor": null,
        "room_num": "309"
      }
    ],
    "short_name": "КМ",
    "teachers": [
      {
        "degree": 2,
        "fisrt_name": "Є",
        "full_name": "Іванов Є.О.",
        "last_name": "Іванов",
        "middle_name": "О"
      },
      {
        "degree": 2,
        "fisrt_name": "Є",
        "full_name": "Демківський Є.О.",
        "last_name": "Демківський",
        "middle_name": "О"
      }
    ],
    "time": "9:00"
  },
  {
    "course": "4",
    "date": "29.05.2019",
    "format": 0,
    "group": "4 ІС",
    "name": "Комплекснийіспит за напрямом \"Програмна інженерія\"",
    "room_data": [
      {
        "housing": null,
        "room_floor": null,
        "room_num": "231"
      }
    ],
    "short_name": "КН\"І",
    "teachers": [
      {
        "degree": 2,
        "fisrt_name": "В",
        "full_name": "Матвієнко В.Т.",
        "last_name": "Матвієнко",
        "middle_name": "Т"
      },
      {
        "degree": 2,
        "fisrt_name": "Є",
        "full_name": "Демківський Є.О.",
        "last_name": "Демківський",
        "middle_name": "О"
      },
      {
        "degree": 2,
        "fisrt_name": "А",
        "full_name": "Петрушенко А.М.",
        "last_name": "Петрушенко",
        "middle_name": "М"
      }
    ],
    "time": "14:00"
  },
  {
    "course": "4",
    "date": "29.05.2019",
    "format": 2,
    "group": "4 ІС",
    "name": "Комплекснийіспит за напрямом \"Програмна інженерія\"",
    "room_data": [
      {
        "housing": null,
        "room_floor": null,
        "room_num": "231"
      }
    ],
    "short_name": "КН\"І",
    "teachers": [
      {
        "degree": 2,
        "fisrt_name": "В",
        "full_name": "Матвієнко В.Т.",
        "last_name": "Матвієнко",
        "middle_name": "Т"
      },
      {
        "degree": 2,
        "fisrt_name": "Є",
        "full_name": "Демківський Є.О.",
        "last_name": "Демківський",
        "middle_name": "О"
      },
      {
        "degree": 2,
        "fisrt_name": "А",
        "full_name": "Петрушенко А.М.",
        "last_name": "Петрушенко",
        "middle_name": "М"
      }
    ],
    "time": "14:00"
  },
  {
    "course": "4",
    "date": "05.06.2019",
    "format": 0,
    "group": "4 ІС",
    "name": "Підготовка та захист випускної кваліфікаційної роботи",
    "room_data": [
      {
        "housing": null,
        "room_floor": null,
        "room_num": "231"
      }
    ],
    "short_name": "ПЗВКР",
    "teachers": [
      {
        "degree": 2,
        "fisrt_name": "В",
        "full_name": "Матвієнко В.Т.",
        "last_name": "Матвієнко",
        "middle_name": "Т"
      },
      {
        "degree": 2,
        "fisrt_name": "Є",
        "full_name": "Демківський Є.О.",
        "last_name": "Демківський",
        "middle_name": "О"
      },
      {
        "degree": 2,
        "fisrt_name": "А",
        "full_name": "Петрушенко А.М.",
        "last_name": "Петрушенко",
        "middle_name": "М"
      }
    ],
    "time": "14:00"
  },
  {
    "course": "4",
    "date": "05.06.2019",
    "format": 2,
    "group": "4 ІС",
    "name": "Підготовка та захист випускної кваліфікаційної роботи",
    "room_data": [
      {
        "housing": null,
        "room_floor": null,
        "room_num": "231"
      }
    ],
    "short_name": "ПЗВКР",
    "teachers": [
      {
        "degree": 2,
        "fisrt_name": "В",
        "full_name": "Матвієнко В.Т.",
        "last_name": "Матвієнко",
        "middle_name": "Т"
      },
      {
        "degree": 2,
        "fisrt_name": "Є",
        "full_name": "Демківський Є.О.",
        "last_name": "Демківський",
        "middle_name": "О"
      },
      {
        "degree": 2,
        "fisrt_name": "А",
        "full_name": "Петрушенко А.М.",
        "last_name": "Петрушенко",
        "middle_name": "М"
      }
    ],
    "time": "14:00"
  },
  {
    "course": "4",
    "date": "15.04.2019",
    "format": 0,
    "group": "4 МІ",
    "name": "Інтелектуальні системи",
    "room_data": [
      {
        "housing": null,
        "room_floor": null,
        "room_num": "43"
      }
    ],
    "short_name": "ІС",
    "teachers": [
      {
        "degree": 3,
        "fisrt_name": "М",
        "full_name": "Глибовець М.М.",
        "last_name": "Глибовець",
        "middle_name": "М"
      },
      {
        "degree": 4,
        "fisrt_name": "О",
        "full_name": "Федорус О.М.",
        "last_name": "Федорус",
        "middle_name": "М"
      }
    ],
    "time": "9:00"
  },
  {
    "course": "4",
    "date": "16.04.2019",
    "format": 2,
    "group": "4 МІ",
    "name": "Інтелектуальні системи",
    "room_data": [
      {
        "housing": null,
        "room_floor": null,
        "room_num": "43"
      }
    ],
    "short_name": "ІС",
    "teachers": [
      {
        "degree": 3,
        "fisrt_name": "М",
        "full_name": "Глибовець М.М.",
        "last_name": "Глибовець",
        "middle_name": "М"
      },
      {
        "degree": 4,
        "fisrt_name": "О",
        "full_name": "Федорус О.М.",
        "last_name": "Федорус",
        "middle_name": "М"
      }
    ],
    "time": "10:30"
  },
  {
    "course": "4",
    "date": "17.04.2019",
    "format": 0,
    "group": "4 МІ",
    "name": "Сучасні технології машинного навчання",
    "room_data": [
      {
        "housing": null,
        "room_floor": null,
        "room_num": "308"
      }
    ],
    "short_name": "СТМН",
    "teachers": [
      {
        "degree": 3,
        "fisrt_name": "О",
        "full_name": "Марченко О.О.",
        "last_name": "Марченко",
        "middle_name": "О"
      },
      {
        "degree": 2,
        "fisrt_name": "О",
        "full_name": "Радивоненко О.С.",
        "last_name": "Радивоненко",
        "middle_name": "С"
      }
    ],
    "time": "9:00"
  },
  {
    "course": "4",
    "date": "18.04.2019",
    "format": 2,
    "group": "4 МІ",
    "name": "Сучасні технології машинного навчання",
    "room_data": [
      {
        "housing": null,
        "room_floor": null,
        "room_num": "704"
      }
    ],
    "short_name": "СТМН",
    "teachers": [
      {
        "degree": 3,
        "fisrt_name": "О",
        "full_name": "Марченко О.О.",
        "last_name": "Марченко",
        "middle_name": "О"
      },
      {
        "degree": 2,
        "fisrt_name": "О",
        "full_name": "Радивоненко О.С.",
        "last_name": "Радивоненко",
        "middle_name": "С"
      }
    ],
    "time": "9:00"
  },
  {
    "course": "4",
    "date": "19.04.2019",
    "format": 0,
    "group": "4 МІ",
    "name": "Системи паралельного програмування",
    "room_data": [
      {
        "housing": null,
        "room_floor": null,
        "room_num": "704"
      }
    ],
    "short_name": "СПП",
    "teachers": [
      {
        "degree": 2,
        "fisrt_name": "О",
        "full_name": "Деревянченко О.В.",
        "last_name": "Деревянченко",
        "middle_name": "В"
      },
      {
        "degree": 2,
        "fisrt_name": "П",
        "full_name": "Кулябко П.П.",
        "last_name": "Кулябко",
        "middle_name": "П"
      }
    ],
    "time": "9:00"
  },
  {
    "course": "4",
    "date": "22.04.2019",
    "format": 2,
    "group": "4 МІ",
    "name": "Системи паралельного програмування",
    "room_data": [
      {
        "housing": null,
        "room_floor": null,
        "room_num": "306"
      }
    ],
    "short_name": "СПП",
    "teachers": [
      {
        "degree": 2,
        "fisrt_name": "О",
        "full_name": "Деревянченко О.В.",
        "last_name": "Деревянченко",
        "middle_name": "В"
      },
      {
        "degree": 2,
        "fisrt_name": "П",
        "full_name": "Кулябко П.П.",
        "last_name": "Кулябко",
        "middle_name": "П"
      }
    ],
    "time": "9:00"
  },
  {
    "course": "4",
    "date": "28.05.2019",
    "format": 0,
    "group": "4 МІ",
    "name": "Комплексний державний іспит за напрямом \"Інформатика\"",
    "room_data": [
      {
        "housing": null,
        "room_floor": null,
        "room_num": "203"
      }
    ],
    "short_name": "КДІН\"",
    "teachers": [
      {
        "degree": 3,
        "fisrt_name": "Ю",
        "full_name": "Крак Ю.В.",
        "last_name": "Крак",
        "middle_name": "В"
      },
      {
        "degree": 2,
        "fisrt_name": "Т",
        "full_name": "Панченко Т.В.",
        "last_name": "Панченко",
        "middle_name": "В"
      },
      {
        "degree": 3,
        "fisrt_name": "О",
        "full_name": "Марченко О.О.",
        "last_name": "Марченко",
        "middle_name": "О"
      }
    ],
    "time": "14:00"
  },
  {
    "course": "4",
    "date": "28.05.2019",
    "format": 2,
    "group": "4 МІ",
    "name": "Комплексний державний іспит за напрямом \"Інформатика\"",
    "room_data": [
      {
        "housing": null,
        "room_floor": null,
        "room_num": "203"
      }
    ],
    "short_name": "КДІН\"",
    "teachers": [
      {
        "degree": 3,
        "fisrt_name": "Ю",
        "full_name": "Крак Ю.В.",
        "last_name": "Крак",
        "middle_name": "В"
      },
      {
        "degree": 2,
        "fisrt_name": "Т",
        "full_name": "Панченко Т.В.",
        "last_name": "Панченко",
        "middle_name": "В"
      },
      {
        "degree": 3,
        "fisrt_name": "О",
        "full_name": "Марченко О.О.",
        "last_name": "Марченко",
        "middle_name": "О"
      }
    ],
    "time": "14:00"
  },
  {
    "course": "4",
    "date": "04.06.2019",
    "format": 0,
    "group": "4 МІ",
    "name": "Кваліфікаційна робота бакалавра",
    "room_data": [
      {
        "housing": null,
        "room_floor": null,
        "room_num": "203"
      }
    ],
    "short_name": "КРБ",
    "teachers": [
      {
        "degree": 3,
        "fisrt_name": "Ю",
        "full_name": "Крак Ю.В.",
        "last_name": "Крак",
        "middle_name": "В"
      },
      {
        "degree": 2,
        "fisrt_name": "Т",
        "full_name": "Панченко Т.В.",
        "last_name": "Панченко",
        "middle_name": "В"
      },
      {
        "degree": 3,
        "fisrt_name": "О",
        "full_name": "Марченко О.О.",
        "last_name": "Марченко",
        "middle_name": "О"
      }
    ],
    "time": "14:00"
  },
  {
    "course": "4",
    "date": "04.06.2019",
    "format": 2,
    "group": "4 МІ",
    "name": "Кваліфікаційна робота бакалавра",
    "room_data": [
      {
        "housing": null,
        "room_floor": null,
        "room_num": "203"
      }
    ],
    "short_name": "КРБ",
    "teachers": [
      {
        "degree": 3,
        "fisrt_name": "Ю",
        "full_name": "Крак Ю.В.",
        "last_name": "Крак",
        "middle_name": "В"
      },
      {
        "degree": 2,
        "fisrt_name": "Т",
        "full_name": "Панченко Т.В.",
        "last_name": "Панченко",
        "middle_name": "В"
      },
      {
        "degree": 3,
        "fisrt_name": "О",
        "full_name": "Марченко О.О.",
        "last_name": "Марченко",
        "middle_name": "О"
      }
    ],
    "time": "14:00"
  },
  {
    "course": "4",
    "date": "15.04.2019",
    "format": 0,
    "group": "4 МСС",
    "name": "Прикладні задачі теорії стійкості",
    "room_data": [
      {
        "housing": null,
        "room_floor": null,
        "room_num": "410"
      }
    ],
    "short_name": "ПЗТС",
    "teachers": [
      {
        "degree": 2,
        "fisrt_name": "В",
        "full_name": "Матвієнко В.Т.",
        "last_name": "Матвієнко",
        "middle_name": "Т"
      },
      {
        "degree": 3,
        "fisrt_name": "Ф",
        "full_name": "Гаращенко Ф.Г.",
        "last_name": "Гаращенко",
        "middle_name": "Г"
      }
    ],
    "time": "9:00"
  },
  {
    "course": "4",
    "date": "16.04.2019",
    "format": 2,
    "group": "4 МСС",
    "name": "Прикладні задачі теорії стійкості",
    "room_data": [
      {
        "housing": null,
        "room_floor": null,
        "room_num": "410"
      }
    ],
    "short_name": "ПЗТС",
    "teachers": [
      {
        "degree": 2,
        "fisrt_name": "В",
        "full_name": "Матвієнко В.Т.",
        "last_name": "Матвієнко",
        "middle_name": "Т"
      },
      {
        "degree": 3,
        "fisrt_name": "Ф",
        "full_name": "Гаращенко Ф.Г.",
        "last_name": "Гаращенко",
        "middle_name": "Г"
      }
    ],
    "time": "9:00"
  },
  {
    "course": "4",
    "date": "17.04.2019",
    "format": 0,
    "group": "4 МСС",
    "name": "Технології математичного та комп'ютерного моделювання. Модуль 1. Математичні задачі конкурентного середовища. Модуль 2. Інтелектуальні обчислення. Модуль 3. Моделювання динамічних процесів з післядією",
    "room_data": [
      {
        "housing": null,
        "room_floor": null,
        "room_num": "6"
      }
    ],
    "short_name": "ТМКМММЗКСМІОММДПП",
    "teachers": [
      {
        "degree": 3,
        "fisrt_name": "Д",
        "full_name": "Хусаінов Д.Я.",
        "last_name": "Хусаінов",
        "middle_name": "Я"
      },
      {
        "degree": 2,
        "fisrt_name": "А",
        "full_name": "Шатирко А.В.",
        "last_name": "Шатирко",
        "middle_name": "В"
      }
    ],
    "time": "9:00"
  },
  {
    "course": "4",
    "date": "18.04.2019",
    "format": 2,
    "group": "4 МСС",
    "name": "Технології математичного та комп'ютерного моделювання. Модуль 1. Математичні задачі конкурентного середовища. Модуль 2. Інтелектуальні обчислення. Модуль 3. Моделювання динамічних процесів з післядією",
    "room_data": [
      {
        "housing": null,
        "room_floor": null,
        "room_num": "14"
      }
    ],
    "short_name": "ТМКМММЗКСМІОММДПП",
    "teachers": [
      {
        "degree": 3,
        "fisrt_name": "Д",
        "full_name": "Хусаінов Д.Я.",
        "last_name": "Хусаінов",
        "middle_name": "Я"
      },
      {
        "degree": 2,
        "fisrt_name": "А",
        "full_name": "Шатирко А.В.",
        "last_name": "Шатирко",
        "middle_name": "В"
      }
    ],
    "time": "9:00"
  },
  {
    "course": "4",
    "date": "22.04.2019",
    "format": 0,
    "group": "4 МСС",
    "name": "Дослідження структурно-заданих систем",
    "room_data": [
      {
        "housing": null,
        "room_floor": null,
        "room_num": "410"
      }
    ],
    "short_name": "ДСС",
    "teachers": [
      {
        "degree": 3,
        "fisrt_name": "О",
        "full_name": "Волошин О.Ф.",
        "last_name": "Волошин",
        "middle_name": "Ф"
      },
      {
        "degree": 2,
        "fisrt_name": "М",
        "full_name": "Коробова М.В.",
        "last_name": "Коробова",
        "middle_name": "В"
      }
    ],
    "time": "9:00"
  },
  {
    "course": "4",
    "date": "23.04.2019",
    "format": 2,
    "group": "4 МСС",
    "name": "Дослідження структурно-заданих систем",
    "room_data": [
      {
        "housing": null,
        "room_floor": null,
        "room_num": "410"
      }
    ],
    "short_name": "ДСС",
    "teachers": [
      {
        "degree": 3,
        "fisrt_name": "О",
        "full_name": "Волошин О.Ф.",
        "last_name": "Волошин",
        "middle_name": "Ф"
      },
      {
        "degree": 2,
        "fisrt_name": "М",
        "full_name": "Коробова М.В.",
        "last_name": "Коробова",
        "middle_name": "В"
      }
    ],
    "time": "9:00"
  },
  {
    "course": "4",
    "date": "28.05.2019",
    "format": 0,
    "group": "4 МСС",
    "name": "Комплексний державний іспит з прикладної математики",
    "room_data": [
      {
        "housing": null,
        "room_floor": null,
        "room_num": "234"
      }
    ],
    "short_name": "КДІПМ",
    "teachers": [
      {
        "degree": 2,
        "fisrt_name": "В",
        "full_name": "Кулян В.Р.",
        "last_name": "Кулян",
        "middle_name": "Р"
      },
      {
        "degree": 2,
        "fisrt_name": "В",
        "full_name": "Кузенко В.Ф.",
        "last_name": "Кузенко",
        "middle_name": "Ф"
      },
      {
        "degree": 2,
        "fisrt_name": "М",
        "full_name": "Коробова М.В.",
        "last_name": "Коробова",
        "middle_name": "В"
      },
      {
        "degree": 2,
        "fisrt_name": "О",
        "full_name": "Маринич О.В.",
        "last_name": "Маринич",
        "middle_name": "В"
      }
    ],
    "time": "14:00"
  },
  {
    "course": "4",
    "date": "28.05.2019",
    "format": 2,
    "group": "4 МСС",
    "name": "Комплексний державний іспит з прикладної математики",
    "room_data": [
      {
        "housing": null,
        "room_floor": null,
        "room_num": "234"
      }
    ],
    "short_name": "КДІПМ",
    "teachers": [
      {
        "degree": 2,
        "fisrt_name": "В",
        "full_name": "Кулян В.Р.",
        "last_name": "Кулян",
        "middle_name": "Р"
      },
      {
        "degree": 2,
        "fisrt_name": "В",
        "full_name": "Кузенко В.Ф.",
        "last_name": "Кузенко",
        "middle_name": "Ф"
      },
      {
        "degree": 2,
        "fisrt_name": "М",
        "full_name": "Коробова М.В.",
        "last_name": "Коробова",
        "middle_name": "В"
      },
      {
        "degree": 2,
        "fisrt_name": "О",
        "full_name": "Маринич О.В.",
        "last_name": "Маринич",
        "middle_name": "В"
      }
    ],
    "time": "14:00"
  },
  {
    "course": "4",
    "date": "04.06.2019",
    "format": 0,
    "group": "4 МСС",
    "name": "Захист кваліфікаційної роботи бакалавра",
    "room_data": [
      {
        "housing": null,
        "room_floor": null,
        "room_num": "234"
      }
    ],
    "short_name": "ЗКРБ",
    "teachers": [
      {
        "degree": 2,
        "fisrt_name": "В",
        "full_name": "Кулян В.Р.",
        "last_name": "Кулян",
        "middle_name": "Р"
      },
      {
        "degree": 2,
        "fisrt_name": "В",
        "full_name": "Кузенко В.Ф.",
        "last_name": "Кузенко",
        "middle_name": "Ф"
      },
      {
        "degree": 2,
        "fisrt_name": "М",
        "full_name": "Коробова М.В.",
        "last_name": "Коробова",
        "middle_name": "В"
      },
      {
        "degree": 2,
        "fisrt_name": "О",
        "full_name": "Маринич О.В.",
        "last_name": "Маринич",
        "middle_name": "В"
      }
    ],
    "time": "14:00"
  },
  {
    "course": "4",
    "date": "04.06.2019",
    "format": 2,
    "group": "4 МСС",
    "name": "Захист кваліфікаційної роботи бакалавра",
    "room_data": [
      {
        "housing": null,
        "room_floor": null,
        "room_num": "234"
      }
    ],
    "short_name": "ЗКРБ",
    "teachers": [
      {
        "degree": 2,
        "fisrt_name": "В",
        "full_name": "Кулян В.Р.",
        "last_name": "Кулян",
        "middle_name": "Р"
      },
      {
        "degree": 2,
        "fisrt_name": "В",
        "full_name": "Кузенко В.Ф.",
        "last_name": "Кузенко",
        "middle_name": "Ф"
      },
      {
        "degree": 2,
        "fisrt_name": "М",
        "full_name": "Коробова М.В.",
        "last_name": "Коробова",
        "middle_name": "В"
      },
      {
        "degree": 2,
        "fisrt_name": "О",
        "full_name": "Маринич О.В.",
        "last_name": "Маринич",
        "middle_name": "В"
      }
    ],
    "time": "14:00"
  },
  {
    "course": "4",
    "date": "15.04.2019",
    "format": 0,
    "group": "4 ОМ",
    "name": "Прикладні ітераційні методи",
    "room_data": [
      {
        "housing": null,
        "room_floor": null,
        "room_num": "216"
      }
    ],
    "short_name": "ПІМ",
    "teachers": [
      {
        "degree": 4,
        "fisrt_name": "К",
        "full_name": "Голубєва К.М.",
        "last_name": "Голубєва",
        "middle_name": "М"
      },
      {
        "degree": 2,
        "fisrt_name": "А",
        "full_name": "Риженко А.І.",
        "last_name": "Риженко",
        "middle_name": "І"
      },
      {
        "degree": 2,
        "fisrt_name": "Д",
        "full_name": "Черній Д.І.",
        "last_name": "Черній",
        "middle_name": "І"
      }
    ],
    "time": "9:00"
  },
  {
    "course": "4",
    "date": "16.04.2019",
    "format": 2,
    "group": "4 ОМ",
    "name": "Прикладні ітераційні методи",
    "room_data": [
      {
        "housing": null,
        "room_floor": null,
        "room_num": "305"
      }
    ],
    "short_name": "ПІМ",
    "teachers": [
      {
        "degree": 4,
        "fisrt_name": "К",
        "full_name": "Голубєва К.М.",
        "last_name": "Голубєва",
        "middle_name": "М"
      },
      {
        "degree": 2,
        "fisrt_name": "А",
        "full_name": "Риженко А.І.",
        "last_name": "Риженко",
        "middle_name": "І"
      },
      {
        "degree": 2,
        "fisrt_name": "Д",
        "full_name": "Черній Д.І.",
        "last_name": "Черній",
        "middle_name": "І"
      }
    ],
    "time": "9:00"
  },
  {
    "course": "4",
    "date": "17.04.2019",
    "format": 0,
    "group": "4 ОМ",
    "name": "Методи розв’язування обернених задач",
    "room_data": [
      {
        "housing": null,
        "room_floor": null,
        "room_num": "304"
      }
    ],
    "short_name": "МРОЗ",
    "teachers": [
      {
        "degree": 3,
        "fisrt_name": "В",
        "full_name": "Семенов В.В.",
        "last_name": "Семенов",
        "middle_name": "В"
      },
      {
        "degree": 3,
        "fisrt_name": "Д",
        "full_name": "Клюшин Д.А.",
        "last_name": "Клюшин",
        "middle_name": "А"
      },
      {
        "degree": 4,
        "fisrt_name": "А",
        "full_name": "Гуляницький А.Л.",
        "last_name": "Гуляницький",
        "middle_name": "Л"
      }
    ],
    "time": "9:00"
  },
  {
    "course": "4",
    "date": "18.04.2019",
    "format": 2,
    "group": "4 ОМ",
    "name": "Методи розв’язування обернених задач",
    "room_data": [
      {
        "housing": null,
        "room_floor": null,
        "room_num": "13"
      }
    ],
    "short_name": "МРОЗ",
    "teachers": [
      {
        "degree": 3,
        "fisrt_name": "В",
        "full_name": "Семенов В.В.",
        "last_name": "Семенов",
        "middle_name": "В"
      },
      {
        "degree": 3,
        "fisrt_name": "Д",
        "full_name": "Клюшин Д.А.",
        "last_name": "Клюшин",
        "middle_name": "А"
      },
      {
        "degree": 4,
        "fisrt_name": "А",
        "full_name": "Гуляницький А.Л.",
        "last_name": "Гуляницький",
        "middle_name": "Л"
      }
    ],
    "time": "9:00"
  },
  {
    "course": "4",
    "date": "22.04.2019",
    "format": 0,
    "group": "4 ОМ",
    "name": "Паралельні методи обчислень",
    "room_data": [
      {
        "housing": null,
        "room_floor": null,
        "room_num": "216"
      }
    ],
    "short_name": "ПМО",
    "teachers": [
      {
        "degree": 3,
        "fisrt_name": "О",
        "full_name": "Хіміч О.М.",
        "last_name": "Хіміч",
        "middle_name": "М"
      },
      {
        "degree": 3,
        "fisrt_name": "С",
        "full_name": "Ляшко С.І.",
        "last_name": "Ляшко",
        "middle_name": "І"
      }
    ],
    "time": "9:00"
  },
  {
    "course": "4",
    "date": "23.04.2019",
    "format": 2,
    "group": "4 ОМ",
    "name": "Паралельні методи обчислень",
    "room_data": [
      {
        "housing": null,
        "room_floor": null,
        "room_num": "216"
      }
    ],
    "short_name": "ПМО",
    "teachers": [
      {
        "degree": 3,
        "fisrt_name": "О",
        "full_name": "Хіміч О.М.",
        "last_name": "Хіміч",
        "middle_name": "М"
      },
      {
        "degree": 3,
        "fisrt_name": "С",
        "full_name": "Ляшко С.І.",
        "last_name": "Ляшко",
        "middle_name": "І"
      }
    ],
    "time": "9:00"
  },
  {
    "course": "4",
    "date": "27.05.2019",
    "format": 0,
    "group": "4 ОМ",
    "name": "Комплексний державний іспит з прикладної математики",
    "room_data": [
      {
        "housing": null,
        "room_floor": null,
        "room_num": "222"
      }
    ],
    "short_name": "КДІПМ",
    "teachers": [
      {
        "degree": 2,
        "fisrt_name": "В",
        "full_name": "Пічкур В.В.",
        "last_name": "Пічкур",
        "middle_name": "В"
      },
      {
        "degree": 2,
        "fisrt_name": "Д",
        "full_name": "Черній Д.І.",
        "last_name": "Черній",
        "middle_name": "І"
      },
      {
        "degree": 2,
        "fisrt_name": "А",
        "full_name": "Анікушин А.В.",
        "last_name": "Анікушин",
        "middle_name": "В"
      },
      {
        "degree": 3,
        "fisrt_name": "Д",
        "full_name": "Клюшин Д.А.",
        "last_name": "Клюшин",
        "middle_name": "А"
      }
    ],
    "time": "14:00"
  },
  {
    "course": "4",
    "date": "27.05.2019",
    "format": 2,
    "group": "4 ОМ",
    "name": "Комплексний державний іспит з прикладної математики",
    "room_data": [
      {
        "housing": null,
        "room_floor": null,
        "room_num": "222"
      }
    ],
    "short_name": "КДІПМ",
    "teachers": [
      {
        "degree": 2,
        "fisrt_name": "В",
        "full_name": "Пічкур В.В.",
        "last_name": "Пічкур",
        "middle_name": "В"
      },
      {
        "degree": 2,
        "fisrt_name": "Д",
        "full_name": "Черній Д.І.",
        "last_name": "Черній",
        "middle_name": "І"
      },
      {
        "degree": 2,
        "fisrt_name": "А",
        "full_name": "Анікушин А.В.",
        "last_name": "Анікушин",
        "middle_name": "В"
      },
      {
        "degree": 3,
        "fisrt_name": "Д",
        "full_name": "Клюшин Д.А.",
        "last_name": "Клюшин",
        "middle_name": "А"
      }
    ],
    "time": "14:00"
  },
  {
    "course": "4",
    "date": "03.06.2019",
    "format": 0,
    "group": "4 ОМ",
    "name": "Захист кваліфікаційної роботи бакалавра",
    "room_data": [
      {
        "housing": null,
        "room_floor": null,
        "room_num": "222"
      }
    ],
    "short_name": "ЗКРБ",
    "teachers": [
      {
        "degree": 2,
        "fisrt_name": "В",
        "full_name": "Пічкур В.В.",
        "last_name": "Пічкур",
        "middle_name": "В"
      },
      {
        "degree": 2,
        "fisrt_name": "Д",
        "full_name": "Черній Д.І.",
        "last_name": "Черній",
        "middle_name": "І"
      },
      {
        "degree": 2,
        "fisrt_name": "А",
        "full_name": "Анікушин А.В.",
        "last_name": "Анікушин",
        "middle_name": "В"
      },
      {
        "degree": 3,
        "fisrt_name": "Д",
        "full_name": "Клюшин Д.А.",
        "last_name": "Клюшин",
        "middle_name": "А"
      }
    ],
    "time": "14:00"
  },
  {
    "course": "4",
    "date": "03.06.2019",
    "format": 2,
    "group": "4 ОМ",
    "name": "Захист кваліфікаційної роботи бакалавра",
    "room_data": [
      {
        "housing": null,
        "room_floor": null,
        "room_num": "222"
      }
    ],
    "short_name": "ЗКРБ",
    "teachers": [
      {
        "degree": 2,
        "fisrt_name": "В",
        "full_name": "Пічкур В.В.",
        "last_name": "Пічкур",
        "middle_name": "В"
      },
      {
        "degree": 2,
        "fisrt_name": "Д",
        "full_name": "Черній Д.І.",
        "last_name": "Черній",
        "middle_name": "І"
      },
      {
        "degree": 2,
        "fisrt_name": "А",
        "full_name": "Анікушин А.В.",
        "last_name": "Анікушин",
        "middle_name": "В"
      },
      {
        "degree": 3,
        "fisrt_name": "Д",
        "full_name": "Клюшин Д.А.",
        "last_name": "Клюшин",
        "middle_name": "А"
      }
    ],
    "time": "14:00"
  },
  {
    "course": "4",
    "date": "15.04.2019",
    "format": 0,
    "group": "4 ПС",
    "name": "Актуарна математика",
    "room_data": [
      {
        "housing": null,
        "room_floor": null,
        "room_num": "311"
      }
    ],
    "short_name": "АМ",
    "teachers": [
      {
        "degree": 2,
        "fisrt_name": "І",
        "full_name": "Розора І.В.",
        "last_name": "Розора",
        "middle_name": "В"
      },
      {
        "degree": 3,
        "fisrt_name": "Є",
        "full_name": "Лебєдєв Є.О.",
        "last_name": "Лебєдєв",
        "middle_name": "О"
      }
    ],
    "time": "9:00"
  },
  {
    "course": "4",
    "date": "16.04.2019",
    "format": 2,
    "group": "4 ПС",
    "name": "Актуарна математика",
    "room_data": [
      {
        "housing": null,
        "room_floor": null,
        "room_num": "309"
      }
    ],
    "short_name": "АМ",
    "teachers": [
      {
        "degree": 2,
        "fisrt_name": "І",
        "full_name": "Розора І.В.",
        "last_name": "Розора",
        "middle_name": "В"
      },
      {
        "degree": 3,
        "fisrt_name": "Є",
        "full_name": "Лебєдєв Є.О.",
        "last_name": "Лебєдєв",
        "middle_name": "О"
      }
    ],
    "time": "9:00"
  },
  {
    "course": "4",
    "date": "17.04.2019",
    "format": 0,
    "group": "4 ПС",
    "name": "Проблеми моделювання систем та дискретної оптимізації.Модуль 1. Ймовірносні основи імітаційного моделювання. Модуль 2. Сучасні проблеми дискретної оптимізації Модуль 3. Моделі оцінювання в прикладних дослідженнях",
    "room_data": [
      {
        "housing": null,
        "room_floor": null,
        "room_num": "305"
      }
    ],
    "short_name": "ПМСДОЙОІММСПДОММОПД",
    "teachers": [
      {
        "degree": 3,
        "fisrt_name": "Є",
        "full_name": "Лебєдєв Є.О.",
        "last_name": "Лебєдєв",
        "middle_name": "О"
      },
      {
        "degree": 2,
        "fisrt_name": "М",
        "full_name": "Шарапов М.М.",
        "last_name": "Шарапов",
        "middle_name": "М"
      }
    ],
    "time": "10:30"
  },
  {
    "course": "4",
    "date": "18.04.2019",
    "format": 2,
    "group": "4 ПС",
    "name": "Проблеми моделювання систем та дискретної оптимізації.Модуль 1. Ймовірносні основи імітаційного моделювання. Модуль 2. Сучасні проблеми дискретної оптимізації Модуль 3. Моделі оцінювання в прикладних дослідженнях",
    "room_data": [
      {
        "housing": null,
        "room_floor": null,
        "room_num": "16"
      }
    ],
    "short_name": "ПМСДОЙОІММСПДОММОПД",
    "teachers": [
      {
        "degree": 3,
        "fisrt_name": "Є",
        "full_name": "Лебєдєв Є.О.",
        "last_name": "Лебєдєв",
        "middle_name": "О"
      },
      {
        "degree": 2,
        "fisrt_name": "М",
        "full_name": "Шарапов М.М.",
        "last_name": "Шарапов",
        "middle_name": "М"
      }
    ],
    "time": "9:00"
  },
  {
    "course": "4",
    "date": "22.04.2019",
    "format": 0,
    "group": "4 ПС",
    "name": "Математичні моделі страхування та асиметрична криптографія Модуль 1. Математичні моделі пенсійного та медичного страхування Модуль 2. Асиметрична криптографія та криптосистеми з відкритим ключем",
    "room_data": [
      {
        "housing": null,
        "room_floor": null,
        "room_num": "312"
      }
    ],
    "short_name": "ММСАКМММПМСМАККВК",
    "teachers": [
      {
        "degree": 4,
        "fisrt_name": "І",
        "full_name": "Макушенко І.А.",
        "last_name": "Макушенко",
        "middle_name": "А"
      },
      {
        "degree": 2,
        "fisrt_name": "О",
        "full_name": "Чечельницький О.А.",
        "last_name": "Чечельницький",
        "middle_name": "А"
      }
    ],
    "time": "9:00"
  },
  {
    "course": "4",
    "date": "23.04.2019",
    "format": 2,
    "group": "4 ПС",
    "name": "Математичні моделі страхування та асиметрична криптографія Модуль 1. Математичні моделі пенсійного та медичного страхування Модуль 2. Асиметрична криптографія та криптосистеми з відкритим ключем",
    "room_data": [
      {
        "housing": null,
        "room_floor": null,
        "room_num": "304"
      }
    ],
    "short_name": "ММСАКМММПМСМАККВК",
    "teachers": [
      {
        "degree": 4,
        "fisrt_name": "І",
        "full_name": "Макушенко І.А.",
        "last_name": "Макушенко",
        "middle_name": "А"
      },
      {
        "degree": 2,
        "fisrt_name": "О",
        "full_name": "Чечельницький О.А.",
        "last_name": "Чечельницький",
        "middle_name": "А"
      }
    ],
    "time": "10:30"
  },
  {
    "course": "4",
    "date": "27.05.2019",
    "format": 0,
    "group": "4 ПС",
    "name": "Комплексний іспит за напрямом \"Cистемний аналіз\"",
    "room_data": [
      {
        "housing": null,
        "room_floor": null,
        "room_num": "235"
      }
    ],
    "short_name": "КІН\"А",
    "teachers": [
      {
        "degree": 4,
        "fisrt_name": "І",
        "full_name": "Макушенко І.А.",
        "last_name": "Макушенко",
        "middle_name": "А"
      },
      {
        "degree": 3,
        "fisrt_name": "О",
        "full_name": "Наконечний О.Г.",
        "last_name": "Наконечний",
        "middle_name": "Г"
      },
      {
        "degree": 2,
        "fisrt_name": "О",
        "full_name": "Слабоспицький О.С.",
        "last_name": "Слабоспицький",
        "middle_name": "С"
      },
      {
        "degree": 2,
        "fisrt_name": "П",
        "full_name": "Зінько П.М.",
        "last_name": "Зінько",
        "middle_name": "М"
      }
    ],
    "time": "14:00"
  },
  {
    "course": "4",
    "date": "27.05.2019",
    "format": 2,
    "group": "4 ПС",
    "name": "Комплексний іспит за напрямом \"Cистемний аналіз\"",
    "room_data": [
      {
        "housing": null,
        "room_floor": null,
        "room_num": "235"
      }
    ],
    "short_name": "КІН\"А",
    "teachers": [
      {
        "degree": 4,
        "fisrt_name": "І",
        "full_name": "Макушенко І.А.",
        "last_name": "Макушенко",
        "middle_name": "А"
      },
      {
        "degree": 3,
        "fisrt_name": "О",
        "full_name": "Наконечний О.Г.",
        "last_name": "Наконечний",
        "middle_name": "Г"
      },
      {
        "degree": 2,
        "fisrt_name": "О",
        "full_name": "Слабоспицький О.С.",
        "last_name": "Слабоспицький",
        "middle_name": "С"
      },
      {
        "degree": 2,
        "fisrt_name": "П",
        "full_name": "Зінько П.М.",
        "last_name": "Зінько",
        "middle_name": "М"
      }
    ],
    "time": "14:00"
  },
  {
    "course": "4",
    "date": "03.06.2019",
    "format": 0,
    "group": "4 ПС",
    "name": "Підготовка та захист випускної кваліфікаційної роботи",
    "room_data": [
      {
        "housing": null,
        "room_floor": null,
        "room_num": "235"
      }
    ],
    "short_name": "ПЗВКР",
    "teachers": [
      {
        "degree": 4,
        "fisrt_name": "І",
        "full_name": "Макушенко І.А.",
        "last_name": "Макушенко",
        "middle_name": "А"
      },
      {
        "degree": 3,
        "fisrt_name": "О",
        "full_name": "Наконечний О.Г.",
        "last_name": "Наконечний",
        "middle_name": "Г"
      },
      {
        "degree": 2,
        "fisrt_name": "О",
        "full_name": "Слабоспицький О.С.",
        "last_name": "Слабоспицький",
        "middle_name": "С"
      },
      {
        "degree": 2,
        "fisrt_name": "П",
        "full_name": "Зінько П.М.",
        "last_name": "Зінько",
        "middle_name": "М"
      }
    ],
    "time": "14:00"
  },
  {
    "course": "4",
    "date": "03.06.2019",
    "format": 2,
    "group": "4 ПС",
    "name": "Підготовка та захист випускної кваліфікаційної роботи",
    "room_data": [
      {
        "housing": null,
        "room_floor": null,
        "room_num": "235"
      }
    ],
    "short_name": "ПЗВКР",
    "teachers": [
      {
        "degree": 4,
        "fisrt_name": "І",
        "full_name": "Макушенко І.А.",
        "last_name": "Макушенко",
        "middle_name": "А"
      },
      {
        "degree": 3,
        "fisrt_name": "О",
        "full_name": "Наконечний О.Г.",
        "last_name": "Наконечний",
        "middle_name": "Г"
      },
      {
        "degree": 2,
        "fisrt_name": "О",
        "full_name": "Слабоспицький О.С.",
        "last_name": "Слабоспицький",
        "middle_name": "С"
      },
      {
        "degree": 2,
        "fisrt_name": "П",
        "full_name": "Зінько П.М.",
        "last_name": "Зінько",
        "middle_name": "М"
      }
    ],
    "time": "14:00"
  },
  {
    "course": "4",
    "date": "15.04.2019",
    "format": 0,
    "group": "4 САТР",
    "name": "Актуарна математика",
    "room_data": [
      {
        "housing": null,
        "room_floor": null,
        "room_num": "311"
      }
    ],
    "short_name": "АМ",
    "teachers": [
      {
        "degree": 2,
        "fisrt_name": "І",
        "full_name": "Розора І.В.",
        "last_name": "Розора",
        "middle_name": "В"
      },
      {
        "degree": 3,
        "fisrt_name": "Є",
        "full_name": "Лебєдєв Є.О.",
        "last_name": "Лебєдєв",
        "middle_name": "О"
      }
    ],
    "time": "9:00"
  },
  {
    "course": "4",
    "date": "16.04.2019",
    "format": 2,
    "group": "4 САТР",
    "name": "Актуарна математика",
    "room_data": [
      {
        "housing": null,
        "room_floor": null,
        "room_num": "309"
      }
    ],
    "short_name": "АМ",
    "teachers": [
      {
        "degree": 2,
        "fisrt_name": "І",
        "full_name": "Розора І.В.",
        "last_name": "Розора",
        "middle_name": "В"
      },
      {
        "degree": 3,
        "fisrt_name": "Є",
        "full_name": "Лебєдєв Є.О.",
        "last_name": "Лебєдєв",
        "middle_name": "О"
      }
    ],
    "time": "9:00"
  },
  {
    "course": "4",
    "date": "17.04.2019",
    "format": 0,
    "group": "4 САТР",
    "name": "Прикладні проблеми теорії прийняття рішень та системного аналізу.Модуль 1. Прикладні проблеми теорії прийняття рішень Модуль 2. Задачі прикладного системного аналізуМодуль 3. Моделі оцінювання в прикладних дослідженнях",
    "room_data": [
      {
        "housing": null,
        "room_floor": null,
        "room_num": "1"
      }
    ],
    "short_name": "ППТПРСАППТПРМЗПСАМОПД",
    "teachers": [
      {
        "degree": 3,
        "fisrt_name": "О",
        "full_name": "Наконечний О.Г.",
        "last_name": "Наконечний",
        "middle_name": "Г"
      },
      {
        "degree": 3,
        "fisrt_name": "Є",
        "full_name": "Івохін Є.В.",
        "last_name": "Івохін",
        "middle_name": "В"
      }
    ],
    "time": "9:00"
  },
  {
    "course": "4",
    "date": "18.04.2019",
    "format": 2,
    "group": "4 САТР",
    "name": "Прикладні проблеми теорії прийняття рішень та системного аналізу.Модуль 1. Прикладні проблеми теорії прийняття рішень Модуль 2. Задачі прикладного системного аналізуМодуль 3. Моделі оцінювання в прикладних дослідженнях",
    "room_data": [
      {
        "housing": null,
        "room_floor": null,
        "room_num": "18"
      }
    ],
    "short_name": "ППТПРСАППТПРМЗПСАМОПД",
    "teachers": [
      {
        "degree": 3,
        "fisrt_name": "О",
        "full_name": "Наконечний О.Г.",
        "last_name": "Наконечний",
        "middle_name": "Г"
      },
      {
        "degree": 3,
        "fisrt_name": "Є",
        "full_name": "Івохін Є.В.",
        "last_name": "Івохін",
        "middle_name": "В"
      }
    ],
    "time": "9:00"
  },
  {
    "course": "4",
    "date": "22.04.2019",
    "format": 0,
    "group": "4 САТР",
    "name": "Основи проектування баз даних",
    "room_data": [
      {
        "housing": null,
        "room_floor": null,
        "room_num": "311"
      }
    ],
    "short_name": "ОПБД",
    "teachers": [
      {
        "degree": 3,
        "fisrt_name": "Є",
        "full_name": "Івохін Є.В.",
        "last_name": "Івохін",
        "middle_name": "В"
      },
      {
        "degree": 4,
        "fisrt_name": "М",
        "full_name": "Махно М.Ф.",
        "last_name": "Махно",
        "middle_name": "Ф"
      }
    ],
    "time": "9:00"
  },
  {
    "course": "4",
    "date": "23.04.2019",
    "format": 2,
    "group": "4 САТР",
    "name": "Основи проектування баз даних",
    "room_data": [
      {
        "housing": null,
        "room_floor": null,
        "room_num": "309"
      }
    ],
    "short_name": "ОПБД",
    "teachers": [
      {
        "degree": 3,
        "fisrt_name": "Є",
        "full_name": "Івохін Є.В.",
        "last_name": "Івохін",
        "middle_name": "В"
      },
      {
        "degree": 4,
        "fisrt_name": "М",
        "full_name": "Махно М.Ф.",
        "last_name": "Махно",
        "middle_name": "Ф"
      }
    ],
    "time": "9:00"
  },
  {
    "course": "4",
    "date": "28.05.2019",
    "format": 0,
    "group": "4 САТР",
    "name": "Комплексний іспит за напрямом \"Cистемний аналіз\"",
    "room_data": [
      {
        "housing": null,
        "room_floor": null,
        "room_num": "235"
      }
    ],
    "short_name": "КІН\"А",
    "teachers": [
      {
        "degree": 4,
        "fisrt_name": "І",
        "full_name": "Макушенко І.А.",
        "last_name": "Макушенко",
        "middle_name": "А"
      },
      {
        "degree": 3,
        "fisrt_name": "О",
        "full_name": "Наконечний О.Г.",
        "last_name": "Наконечний",
        "middle_name": "Г"
      },
      {
        "degree": 2,
        "fisrt_name": "О",
        "full_name": "Слабоспицький О.С.",
        "last_name": "Слабоспицький",
        "middle_name": "С"
      },
      {
        "degree": 2,
        "fisrt_name": "П",
        "full_name": "Зінько П.М.",
        "last_name": "Зінько",
        "middle_name": "М"
      }
    ],
    "time": "14:00"
  },
  {
    "course": "4",
    "date": "28.05.2019",
    "format": 2,
    "group": "4 САТР",
    "name": "Комплексний іспит за напрямом \"Cистемний аналіз\"",
    "room_data": [
      {
        "housing": null,
        "room_floor": null,
        "room_num": "235"
      }
    ],
    "short_name": "КІН\"А",
    "teachers": [
      {
        "degree": 4,
        "fisrt_name": "І",
        "full_name": "Макушенко І.А.",
        "last_name": "Макушенко",
        "middle_name": "А"
      },
      {
        "degree": 3,
        "fisrt_name": "О",
        "full_name": "Наконечний О.Г.",
        "last_name": "Наконечний",
        "middle_name": "Г"
      },
      {
        "degree": 2,
        "fisrt_name": "О",
        "full_name": "Слабоспицький О.С.",
        "last_name": "Слабоспицький",
        "middle_name": "С"
      },
      {
        "degree": 2,
        "fisrt_name": "П",
        "full_name": "Зінько П.М.",
        "last_name": "Зінько",
        "middle_name": "М"
      }
    ],
    "time": "14:00"
  },
  {
    "course": "4",
    "date": "04.06.2019",
    "format": 0,
    "group": "4 САТР",
    "name": "Підготовка та захист випускної кваліфікаційної роботи",
    "room_data": [
      {
        "housing": null,
        "room_floor": null,
        "room_num": "234"
      }
    ],
    "short_name": "ПЗВКР",
    "teachers": [
      {
        "degree": 4,
        "fisrt_name": "І",
        "full_name": "Макушенко І.А.",
        "last_name": "Макушенко",
        "middle_name": "А"
      },
      {
        "degree": 3,
        "fisrt_name": "О",
        "full_name": "Наконечний О.Г.",
        "last_name": "Наконечний",
        "middle_name": "Г"
      },
      {
        "degree": 2,
        "fisrt_name": "О",
        "full_name": "Слабоспицький О.С.",
        "last_name": "Слабоспицький",
        "middle_name": "С"
      },
      {
        "degree": 2,
        "fisrt_name": "П",
        "full_name": "Зінько П.М.",
        "last_name": "Зінько",
        "middle_name": "М"
      }
    ],
    "time": "14:00"
  },
  {
    "course": "4",
    "date": "04.06.2019",
    "format": 2,
    "group": "4 САТР",
    "name": "Підготовка та захист випускної кваліфікаційної роботи",
    "room_data": [
      {
        "housing": null,
        "room_floor": null,
        "room_num": "234"
      }
    ],
    "short_name": "ПЗВКР",
    "teachers": [
      {
        "degree": 4,
        "fisrt_name": "І",
        "full_name": "Макушенко І.А.",
        "last_name": "Макушенко",
        "middle_name": "А"
      },
      {
        "degree": 3,
        "fisrt_name": "О",
        "full_name": "Наконечний О.Г.",
        "last_name": "Наконечний",
        "middle_name": "Г"
      },
      {
        "degree": 2,
        "fisrt_name": "О",
        "full_name": "Слабоспицький О.С.",
        "last_name": "Слабоспицький",
        "middle_name": "С"
      },
      {
        "degree": 2,
        "fisrt_name": "П",
        "full_name": "Зінько П.М.",
        "last_name": "Зінько",
        "middle_name": "М"
      }
    ],
    "time": "14:00"
  },
  {
    "course": "4",
    "date": "15.04.2019",
    "format": 0,
    "group": "4 ТК",
    "name": "Інтелектуальні системи",
    "room_data": [
      {
        "housing": null,
        "room_floor": null,
        "room_num": "43"
      }
    ],
    "short_name": "ІС",
    "teachers": [
      {
        "degree": 3,
        "fisrt_name": "М",
        "full_name": "Глибовець М.М.",
        "last_name": "Глибовець",
        "middle_name": "М"
      },
      {
        "degree": 4,
        "fisrt_name": "О",
        "full_name": "Федорус О.М.",
        "last_name": "Федорус",
        "middle_name": "М"
      }
    ],
    "time": "9:00"
  },
  {
    "course": "4",
    "date": "16.04.2019",
    "format": 2,
    "group": "4 ТК",
    "name": "Інтелектуальні системи",
    "room_data": [
      {
        "housing": null,
        "room_floor": null,
        "room_num": "43"
      }
    ],
    "short_name": "ІС",
    "teachers": [
      {
        "degree": 3,
        "fisrt_name": "М",
        "full_name": "Глибовець М.М.",
        "last_name": "Глибовець",
        "middle_name": "М"
      },
      {
        "degree": 4,
        "fisrt_name": "О",
        "full_name": "Федорус О.М.",
        "last_name": "Федорус",
        "middle_name": "М"
      }
    ],
    "time": "10:30"
  },
  {
    "course": "4",
    "date": "17.04.2019",
    "format": 0,
    "group": "4 ТК",
    "name": "Нейромережі та нейрообчислення",
    "room_data": [
      {
        "housing": null,
        "room_floor": null,
        "room_num": "15"
      }
    ],
    "short_name": "НН",
    "teachers": [
      {
        "degree": 2,
        "fisrt_name": "А",
        "full_name": "Ставровський А.Б.",
        "last_name": "Ставровський",
        "middle_name": "Б"
      },
      {
        "degree": 3,
        "fisrt_name": "А",
        "full_name": "Пашко А.О.",
        "last_name": "Пашко",
        "middle_name": "О"
      }
    ],
    "time": "9:00"
  },
  {
    "course": "4",
    "date": "18.04.2019",
    "format": 2,
    "group": "4 ТК",
    "name": "Нейромережі та нейрообчислення",
    "room_data": [
      {
        "housing": null,
        "room_floor": null,
        "room_num": "17"
      }
    ],
    "short_name": "НН",
    "teachers": [
      {
        "degree": 2,
        "fisrt_name": "А",
        "full_name": "Ставровський А.Б.",
        "last_name": "Ставровський",
        "middle_name": "Б"
      },
      {
        "degree": 3,
        "fisrt_name": "А",
        "full_name": "Пашко А.О.",
        "last_name": "Пашко",
        "middle_name": "О"
      }
    ],
    "time": "9:00"
  },
  {
    "course": "4",
    "date": "19.04.2019",
    "format": 0,
    "group": "4 ТК",
    "name": "Розпізнавання образів та машинне навчання",
    "room_data": [
      {
        "housing": null,
        "room_floor": null,
        "room_num": "36"
      }
    ],
    "short_name": "РОМН",
    "teachers": [
      {
        "degree": 2,
        "fisrt_name": "Р",
        "full_name": "Трохимчук Р.М.",
        "last_name": "Трохимчук",
        "middle_name": "М"
      },
      {
        "degree": 2,
        "fisrt_name": "Т",
        "full_name": "Карнаух Т.О.",
        "last_name": "Карнаух",
        "middle_name": "О"
      }
    ],
    "time": "9:00"
  },
  {
    "course": "4",
    "date": "22.04.2019",
    "format": 2,
    "group": "4 ТК",
    "name": "Розпізнавання образів та машинне навчання",
    "room_data": [
      {
        "housing": null,
        "room_floor": null,
        "room_num": "14"
      }
    ],
    "short_name": "РОМН",
    "teachers": [
      {
        "degree": 2,
        "fisrt_name": "Р",
        "full_name": "Трохимчук Р.М.",
        "last_name": "Трохимчук",
        "middle_name": "М"
      },
      {
        "degree": 2,
        "fisrt_name": "Т",
        "full_name": "Карнаух Т.О.",
        "last_name": "Карнаух",
        "middle_name": "О"
      }
    ],
    "time": "9:00"
  },
  {
    "course": "4",
    "date": "29.05.2019",
    "format": 0,
    "group": "4 ТК",
    "name": "Комплексний державний іспит за напрямом \"Інформатика\"",
    "room_data": [
      {
        "housing": null,
        "room_floor": null,
        "room_num": "203"
      }
    ],
    "short_name": "КДІН\"",
    "teachers": [
      {
        "degree": 3,
        "fisrt_name": "Ю",
        "full_name": "Крак Ю.В.",
        "last_name": "Крак",
        "middle_name": "В"
      },
      {
        "degree": 2,
        "fisrt_name": "Т",
        "full_name": "Панченко Т.В.",
        "last_name": "Панченко",
        "middle_name": "В"
      },
      {
        "degree": 3,
        "fisrt_name": "О",
        "full_name": "Марченко О.О.",
        "last_name": "Марченко",
        "middle_name": "О"
      }
    ],
    "time": "14:00"
  },
  {
    "course": "4",
    "date": "29.05.2019",
    "format": 2,
    "group": "4 ТК",
    "name": "Комплексний державний іспит за напрямом \"Інформатика\"",
    "room_data": [
      {
        "housing": null,
        "room_floor": null,
        "room_num": "203"
      }
    ],
    "short_name": "КДІН\"",
    "teachers": [
      {
        "degree": 3,
        "fisrt_name": "Ю",
        "full_name": "Крак Ю.В.",
        "last_name": "Крак",
        "middle_name": "В"
      },
      {
        "degree": 2,
        "fisrt_name": "Т",
        "full_name": "Панченко Т.В.",
        "last_name": "Панченко",
        "middle_name": "В"
      },
      {
        "degree": 3,
        "fisrt_name": "О",
        "full_name": "Марченко О.О.",
        "last_name": "Марченко",
        "middle_name": "О"
      }
    ],
    "time": "14:00"
  },
  {
    "course": "4",
    "date": "05.06.2019",
    "format": 0,
    "group": "4 ТК",
    "name": "Кваліфікаційна робота бакалавра",
    "room_data": [
      {
        "housing": null,
        "room_floor": null,
        "room_num": "203"
      }
    ],
    "short_name": "КРБ",
    "teachers": [
      {
        "degree": 3,
        "fisrt_name": "Ю",
        "full_name": "Крак Ю.В.",
        "last_name": "Крак",
        "middle_name": "В"
      },
      {
        "degree": 2,
        "fisrt_name": "Т",
        "full_name": "Панченко Т.В.",
        "last_name": "Панченко",
        "middle_name": "В"
      },
      {
        "degree": 3,
        "fisrt_name": "О",
        "full_name": "Марченко О.О.",
        "last_name": "Марченко",
        "middle_name": "О"
      }
    ],
    "time": "14:00"
  },
  {
    "course": "4",
    "date": "05.06.2019",
    "format": 2,
    "group": "4 ТК",
    "name": "Кваліфікаційна робота бакалавра",
    "room_data": [
      {
        "housing": null,
        "room_floor": null,
        "room_num": "203"
      }
    ],
    "short_name": "КРБ",
    "teachers": [
      {
        "degree": 3,
        "fisrt_name": "Ю",
        "full_name": "Крак Ю.В.",
        "last_name": "Крак",
        "middle_name": "В"
      },
      {
        "degree": 2,
        "fisrt_name": "Т",
        "full_name": "Панченко Т.В.",
        "last_name": "Панченко",
        "middle_name": "В"
      },
      {
        "degree": 3,
        "fisrt_name": "О",
        "full_name": "Марченко О.О.",
        "last_name": "Марченко",
        "middle_name": "О"
      }
    ],
    "time": "14:00"
  },
  {
    "course": "4",
    "date": "15.04.2019",
    "format": 0,
    "group": "4 ТТП",
    "name": "Інтелектуальні системи",
    "room_data": [
      {
        "housing": null,
        "room_floor": null,
        "room_num": "43"
      }
    ],
    "short_name": "ІС",
    "teachers": [
      {
        "degree": 3,
        "fisrt_name": "М",
        "full_name": "Глибовець М.М.",
        "last_name": "Глибовець",
        "middle_name": "М"
      },
      {
        "degree": 4,
        "fisrt_name": "О",
        "full_name": "Федорус О.М.",
        "last_name": "Федорус",
        "middle_name": "М"
      }
    ],
    "time": "9:00"
  },
  {
    "course": "4",
    "date": "16.04.2019",
    "format": 2,
    "group": "4 ТТП",
    "name": "Інтелектуальні системи",
    "room_data": [
      {
        "housing": null,
        "room_floor": null,
        "room_num": "43"
      }
    ],
    "short_name": "ІС",
    "teachers": [
      {
        "degree": 3,
        "fisrt_name": "М",
        "full_name": "Глибовець М.М.",
        "last_name": "Глибовець",
        "middle_name": "М"
      },
      {
        "degree": 4,
        "fisrt_name": "О",
        "full_name": "Федорус О.М.",
        "last_name": "Федорус",
        "middle_name": "М"
      }
    ],
    "time": "10:30"
  },
  {
    "course": "4",
    "date": "17.04.2019",
    "format": 0,
    "group": "4 ТТП",
    "name": "Розробка бізнес-аналітичних систем",
    "room_data": [
      {
        "housing": null,
        "room_floor": null,
        "room_num": "309"
      }
    ],
    "short_name": "РБС",
    "teachers": [
      {
        "degree": 2,
        "fisrt_name": "В",
        "full_name": "Кузенко В.Ф.",
        "last_name": "Кузенко",
        "middle_name": "Ф"
      },
      {
        "degree": 2,
        "fisrt_name": "Т",
        "full_name": "Панченко Т.В.",
        "last_name": "Панченко",
        "middle_name": "В"
      }
    ],
    "time": "9:00"
  },
  {
    "course": "4",
    "date": "18.04.2019",
    "format": 2,
    "group": "4 ТТП",
    "name": "Розробка бізнес-аналітичних систем",
    "room_data": [
      {
        "housing": null,
        "room_floor": null,
        "room_num": "311"
      }
    ],
    "short_name": "РБС",
    "teachers": [
      {
        "degree": 2,
        "fisrt_name": "В",
        "full_name": "Кузенко В.Ф.",
        "last_name": "Кузенко",
        "middle_name": "Ф"
      },
      {
        "degree": 2,
        "fisrt_name": "Т",
        "full_name": "Панченко Т.В.",
        "last_name": "Панченко",
        "middle_name": "В"
      }
    ],
    "time": "9:00"
  },
  {
    "course": "4",
    "date": "19.04.2019",
    "format": 0,
    "group": "4 ТТП",
    "name": "Методи специфікації програм",
    "room_data": [
      {
        "housing": null,
        "room_floor": null,
        "room_num": "17"
      }
    ],
    "short_name": "МСП",
    "teachers": [
      {
        "degree": 4,
        "fisrt_name": "А",
        "full_name": "Криволап А.В.",
        "last_name": "Криволап",
        "middle_name": "В"
      },
      {
        "degree": 4,
        "fisrt_name": "М",
        "full_name": "Федорова М.В.",
        "last_name": "Федорова",
        "middle_name": "В"
      }
    ],
    "time": "9:00"
  },
  {
    "course": "4",
    "date": "23.04.2019",
    "format": 2,
    "group": "4 ТТП",
    "name": "Методи специфікації програм",
    "room_data": [
      {
        "housing": null,
        "room_floor": null,
        "room_num": "312"
      }
    ],
    "short_name": "МСП",
    "teachers": [
      {
        "degree": 4,
        "fisrt_name": "А",
        "full_name": "Криволап А.В.",
        "last_name": "Криволап",
        "middle_name": "В"
      },
      {
        "degree": 4,
        "fisrt_name": "М",
        "full_name": "Федорова М.В.",
        "last_name": "Федорова",
        "middle_name": "В"
      }
    ],
    "time": "9:00"
  },
  {
    "course": "4",
    "date": "29.05.2019",
    "format": 0,
    "group": "4 ТТП",
    "name": "Комплексний державний іспит за напрямом \"Інформатика\"",
    "room_data": [
      {
        "housing": null,
        "room_floor": null,
        "room_num": "705"
      }
    ],
    "short_name": "КДІН\"",
    "teachers": [
      {
        "degree": 3,
        "fisrt_name": "С",
        "full_name": "Шкільняк С.С.",
        "last_name": "Шкільняк",
        "middle_name": "С"
      },
      {
        "degree": 2,
        "fisrt_name": "А",
        "full_name": "Шатирко А.В.",
        "last_name": "Шатирко",
        "middle_name": "В"
      },
      {
        "degree": 2,
        "fisrt_name": "О",
        "full_name": "Деревянченко О.В.",
        "last_name": "Деревянченко",
        "middle_name": "В"
      }
    ],
    "time": "14:00"
  },
  {
    "course": "4",
    "date": "29.05.2019",
    "format": 2,
    "group": "4 ТТП",
    "name": "Комплексний державний іспит за напрямом \"Інформатика\"",
    "room_data": [
      {
        "housing": null,
        "room_floor": null,
        "room_num": "705"
      }
    ],
    "short_name": "КДІН\"",
    "teachers": [
      {
        "degree": 3,
        "fisrt_name": "С",
        "full_name": "Шкільняк С.С.",
        "last_name": "Шкільняк",
        "middle_name": "С"
      },
      {
        "degree": 2,
        "fisrt_name": "А",
        "full_name": "Шатирко А.В.",
        "last_name": "Шатирко",
        "middle_name": "В"
      },
      {
        "degree": 2,
        "fisrt_name": "О",
        "full_name": "Деревянченко О.В.",
        "last_name": "Деревянченко",
        "middle_name": "В"
      }
    ],
    "time": "14:00"
  },
  {
    "course": "4",
    "date": "05.06.2019",
    "format": 0,
    "group": "4 ТТП",
    "name": "Кваліфікаційна робота бакалавра",
    "room_data": [
      {
        "housing": null,
        "room_floor": null,
        "room_num": "705"
      }
    ],
    "short_name": "КРБ",
    "teachers": [
      {
        "degree": 3,
        "fisrt_name": "С",
        "full_name": "Шкільняк С.С.",
        "last_name": "Шкільняк",
        "middle_name": "С"
      },
      {
        "degree": 2,
        "fisrt_name": "А",
        "full_name": "Шатирко А.В.",
        "last_name": "Шатирко",
        "middle_name": "В"
      },
      {
        "degree": 2,
        "fisrt_name": "О",
        "full_name": "Деревянченко О.В.",
        "last_name": "Деревянченко",
        "middle_name": "В"
      }
    ],
    "time": "14:00"
  },
  {
    "course": "4",
    "date": "05.06.2019",
    "format": 2,
    "group": "4 ТТП",
    "name": "Кваліфікаційна робота бакалавра",
    "room_data": [
      {
        "housing": null,
        "room_floor": null,
        "room_num": "705"
      }
    ],
    "short_name": "КРБ",
    "teachers": [
      {
        "degree": 3,
        "fisrt_name": "С",
        "full_name": "Шкільняк С.С.",
        "last_name": "Шкільняк",
        "middle_name": "С"
      },
      {
        "degree": 2,
        "fisrt_name": "А",
        "full_name": "Шатирко А.В.",
        "last_name": "Шатирко",
        "middle_name": "В"
      },
      {
        "degree": 2,
        "fisrt_name": "О",
        "full_name": "Деревянченко О.В.",
        "last_name": "Деревянченко",
        "middle_name": "В"
      }
    ],
    "time": "14:00"
  },
  {
    "course": "4",
    "date": "09.04.2019",
    "format": 1,
    "group": "4 ДО",
    "name": "Обробка та розпізнавання зображень",
    "room_data": [
      {
        "housing": null,
        "room_floor": null,
        "room_num": "231"
      }
    ],
    "short_name": "ОРЗ",
    "teachers": [
      {
        "degree": 2,
        "fisrt_name": "В",
        "full_name": "Матвієнко В.Т.",
        "last_name": "Матвієнко",
        "middle_name": "Т"
      }
    ],
    "time": "10:00"
  },
  {
    "course": "4",
    "date": "11.04.2019",
    "format": 1,
    "group": "4 ДО",
    "name": "Математична економіка",
    "room_data": [
      {
        "housing": null,
        "room_floor": null,
        "room_num": "40"
      }
    ],
    "short_name": "МЕ",
    "teachers": [
      {
        "degree": 3,
        "fisrt_name": "О",
        "full_name": "Волошин О.Ф.",
        "last_name": "Волошин",
        "middle_name": "Ф"
      },
      {
        "degree": 2,
        "fisrt_name": "М",
        "full_name": "Коробова М.В.",
        "last_name": "Коробова",
        "middle_name": "В"
      }
    ],
    "time": "10:00"
  },
  {
    "course": "4",
    "date": "11.04.2019",
    "format": 1,
    "group": "4 ДО",
    "name": "Вибрані розділи трудового права і основ підприємницької діяльності",
    "room_data": [
      {
        "housing": null,
        "room_floor": null,
        "room_num": "309"
      }
    ],
    "short_name": "ВРТПОПД",
    "teachers": [
      {
        "degree": 4,
        "fisrt_name": "Г",
        "full_name": "Кузьменко Г.В.",
        "last_name": "Кузьменко",
        "middle_name": "В"
      },
      {
        "degree": 2,
        "fisrt_name": "О",
        "full_name": "Богуславський О.В.",
        "last_name": "Богуславський",
        "middle_name": "В"
      }
    ],
    "time": "12:00"
  },
  {
    "course": "4",
    "date": null,
    "format": 1,
    "group": "4 ІС",
    "name": "Системи штучного інтелекту",
    "room_data": [
      {
        "housing": null,
        "room_floor": null,
        "room_num": "309"
      }
    ],
    "short_name": "СШІ",
    "teachers": [
      {
        "degree": 2,
        "fisrt_name": "Є",
        "full_name": "Демківський Є.О.",
        "last_name": "Демківський",
        "middle_name": "О"
      }
    ],
    "time": null
  },
  {
    "course": "4",
    "date": "08.04.2019",
    "format": 1,
    "group": "4 ІС",
    "name": "Комп'ютерна алгебра",
    "room_data": [
      {
        "housing": null,
        "room_floor": null,
        "room_num": "305"
      }
    ],
    "short_name": "КА",
    "teachers": [
      {
        "degree": 3,
        "fisrt_name": "С",
        "full_name": "Єршов С.В.",
        "last_name": "Єршов",
        "middle_name": "В"
      }
    ],
    "time": "9:00"
  },
  {
    "course": "4",
    "date": "08.04.2019",
    "format": 1,
    "group": "4 ІС",
    "name": "Програмування з обмеженнями",
    "room_data": [
      {
        "housing": null,
        "room_floor": null,
        "room_num": "305"
      }
    ],
    "short_name": "ПО",
    "teachers": [
      {
        "degree": 3,
        "fisrt_name": "С",
        "full_name": "Кривий С.Л.",
        "last_name": "Кривий",
        "middle_name": "Л"
      }
    ],
    "time": "12:00"
  },
  {
    "course": "4",
    "date": "11.04.2019",
    "format": 1,
    "group": "4 ІС",
    "name": "Теорія квантових обчислень",
    "room_data": [
      {
        "housing": null,
        "room_floor": null,
        "room_num": "312"
      }
    ],
    "short_name": "ТКО",
    "teachers": [
      {
        "degree": 2,
        "fisrt_name": "О",
        "full_name": "Галкін О.В.",
        "last_name": "Галкін",
        "middle_name": "В"
      },
      {
        "degree": 4,
        "fisrt_name": "Я",
        "full_name": "Ліндер Я.М.",
        "last_name": "Ліндер",
        "middle_name": "М"
      }
    ],
    "time": "9:00"
  },
  {
    "course": "4",
    "date": "10.04.2019",
    "format": 1,
    "group": "4 МІ",
    "name": "Проблеми рефакторингу",
    "room_data": [
      {
        "housing": null,
        "room_floor": null,
        "room_num": "308"
      }
    ],
    "short_name": "ПР",
    "teachers": [
      {
        "degree": 2,
        "fisrt_name": "П",
        "full_name": "Кулябко П.П.",
        "last_name": "Кулябко",
        "middle_name": "П"
      }
    ],
    "time": "9:00"
  },
  {
    "course": "4",
    "date": "10.04.2019",
    "format": 1,
    "group": "4 МІ",
    "name": "Основи розпізнавання образів",
    "room_data": [
      {
        "housing": null,
        "room_floor": null,
        "room_num": "308"
      }
    ],
    "short_name": "ОРО",
    "teachers": [
      {
        "degree": 2,
        "fisrt_name": "Д",
        "full_name": "Рябоконь Д.І.",
        "last_name": "Рябоконь",
        "middle_name": "І"
      }
    ],
    "time": "10:30"
  },
  {
    "course": "4",
    "date": "11.04.2019",
    "format": 1,
    "group": "4 МІ",
    "name": "Iнформаційні технології в менеджментi",
    "room_data": [
      {
        "housing": null,
        "room_floor": null,
        "room_num": "42"
      }
    ],
    "short_name": "IТМ",
    "teachers": [
      {
        "degree": 3,
        "fisrt_name": "І",
        "full_name": "Вергунова І.М.",
        "last_name": "Вергунова",
        "middle_name": "М"
      },
      {
        "degree": 2,
        "fisrt_name": "О",
        "full_name": "Тимашов О.О.",
        "last_name": "Тимашов",
        "middle_name": "О"
      }
    ],
    "time": "9:00"
  },
  {
    "course": "4",
    "date": "11.04.2019",
    "format": 1,
    "group": "4 МІ",
    "name": "Вибрані розділи трудового права і основ підприємницької діяльності",
    "room_data": [
      {
        "housing": null,
        "room_floor": null,
        "room_num": "221"
      }
    ],
    "short_name": "ВРТПОПД",
    "teachers": [
      {
        "degree": 4,
        "fisrt_name": "Г",
        "full_name": "Кузьменко Г.В.",
        "last_name": "Кузьменко",
        "middle_name": "В"
      },
      {
        "degree": 2,
        "fisrt_name": "О",
        "full_name": "Богуславський О.В.",
        "last_name": "Богуславський",
        "middle_name": "В"
      }
    ],
    "time": "14:00"
  },
  {
    "course": "4",
    "date": "09.04.2019",
    "format": 1,
    "group": "4 МСС",
    "name": "Обробка та розпізнавання зображень",
    "room_data": [
      {
        "housing": null,
        "room_floor": null,
        "room_num": "203"
      }
    ],
    "short_name": "ОРЗ",
    "teachers": [
      {
        "degree": 2,
        "fisrt_name": "В",
        "full_name": "Матвієнко В.Т.",
        "last_name": "Матвієнко",
        "middle_name": "Т"
      }
    ],
    "time": "12:00"
  },
  {
    "course": "4",
    "date": "11.04.2019",
    "format": 1,
    "group": "4 МСС",
    "name": "Математична економіка",
    "room_data": [
      {
        "housing": null,
        "room_floor": null,
        "room_num": "40"
      }
    ],
    "short_name": "МЕ",
    "teachers": [
      {
        "degree": 3,
        "fisrt_name": "О",
        "full_name": "Волошин О.Ф.",
        "last_name": "Волошин",
        "middle_name": "Ф"
      },
      {
        "degree": 2,
        "fisrt_name": "М",
        "full_name": "Коробова М.В.",
        "last_name": "Коробова",
        "middle_name": "В"
      }
    ],
    "time": "10:00"
  },
  {
    "course": "4",
    "date": "11.04.2019",
    "format": 1,
    "group": "4 МСС",
    "name": "Вибрані розділи трудового права і основ підприємницької діяльності",
    "room_data": [
      {
        "housing": null,
        "room_floor": null,
        "room_num": "309"
      }
    ],
    "short_name": "ВРТПОПД",
    "teachers": [
      {
        "degree": 4,
        "fisrt_name": "Г",
        "full_name": "Кузьменко Г.В.",
        "last_name": "Кузьменко",
        "middle_name": "В"
      },
      {
        "degree": 2,
        "fisrt_name": "О",
        "full_name": "Богуславський О.В.",
        "last_name": "Богуславський",
        "middle_name": "В"
      }
    ],
    "time": "12:00"
  },
  {
    "course": "4",
    "date": "09.04.2019",
    "format": 1,
    "group": "4 ОМ",
    "name": "Математична економіка",
    "room_data": [
      {
        "housing": null,
        "room_floor": null,
        "room_num": "40"
      }
    ],
    "short_name": "МЕ",
    "teachers": [
      {
        "degree": 3,
        "fisrt_name": "О",
        "full_name": "Волошин О.Ф.",
        "last_name": "Волошин",
        "middle_name": "Ф"
      },
      {
        "degree": 2,
        "fisrt_name": "М",
        "full_name": "Коробова М.В.",
        "last_name": "Коробова",
        "middle_name": "В"
      }
    ],
    "time": "10:00"
  },
  {
    "course": "4",
    "date": "09.04.2019",
    "format": 1,
    "group": "4 ОМ",
    "name": "Обробка та розпізнавання зображень",
    "room_data": [
      {
        "housing": null,
        "room_floor": null,
        "room_num": "203"
      }
    ],
    "short_name": "ОРЗ",
    "teachers": [
      {
        "degree": 2,
        "fisrt_name": "В",
        "full_name": "Матвієнко В.Т.",
        "last_name": "Матвієнко",
        "middle_name": "Т"
      }
    ],
    "time": "12:00"
  },
  {
    "course": "4",
    "date": "11.04.2019",
    "format": 1,
    "group": "4 ОМ",
    "name": "Вибрані розділи трудового права і основ підприємницької діяльності",
    "room_data": [
      {
        "housing": null,
        "room_floor": null,
        "room_num": "309"
      }
    ],
    "short_name": "ВРТПОПД",
    "teachers": [
      {
        "degree": 4,
        "fisrt_name": "Г",
        "full_name": "Кузьменко Г.В.",
        "last_name": "Кузьменко",
        "middle_name": "В"
      },
      {
        "degree": 2,
        "fisrt_name": "О",
        "full_name": "Богуславський О.В.",
        "last_name": "Богуславський",
        "middle_name": "В"
      }
    ],
    "time": "12:00"
  },
  {
    "course": "4",
    "date": "08.04.2019",
    "format": 1,
    "group": "4 ПС",
    "name": "Бази даних та інформаційні системи",
    "room_data": [
      {
        "housing": null,
        "room_floor": null,
        "room_num": "705"
      }
    ],
    "short_name": "БДІС",
    "teachers": [
      {
        "degree": 2,
        "fisrt_name": "І",
        "full_name": "Завадський І.О.",
        "last_name": "Завадський",
        "middle_name": "О"
      }
    ],
    "time": "12:00"
  },
  {
    "course": "4",
    "date": "09.04.2019",
    "format": 1,
    "group": "4 ПС",
    "name": "Вибрані розділи трудового права і основ підприємницької діяльності",
    "room_data": [
      {
        "housing": null,
        "room_floor": null,
        "room_num": "221"
      }
    ],
    "short_name": "ВРТПОПД",
    "teachers": [
      {
        "degree": 4,
        "fisrt_name": "Г",
        "full_name": "Кузьменко Г.В.",
        "last_name": "Кузьменко",
        "middle_name": "В"
      },
      {
        "degree": 2,
        "fisrt_name": "О",
        "full_name": "Богуславський О.В.",
        "last_name": "Богуславський",
        "middle_name": "В"
      }
    ],
    "time": "12:00"
  },
  {
    "course": "4",
    "date": "10.04.2019",
    "format": 1,
    "group": "4 ПС",
    "name": "Соціально-політичні студії",
    "room_data": [
      {
        "housing": null,
        "room_floor": null,
        "room_num": "305"
      }
    ],
    "short_name": "СС",
    "teachers": [
      {
        "degree": 2,
        "fisrt_name": "М",
        "full_name": "Каращук М.Г.",
        "last_name": "Каращук",
        "middle_name": "Г"
      },
      {
        "degree": 4,
        "fisrt_name": "А",
        "full_name": "Тащенко А.Ю.",
        "last_name": "Тащенко",
        "middle_name": "Ю"
      }
    ],
    "time": "9:00"
  },
  {
    "course": "4",
    "date": "11.04.2019",
    "format": 1,
    "group": "4 ПС",
    "name": "Рівняння математичної фізики",
    "room_data": [
      {
        "housing": null,
        "room_floor": null,
        "room_num": "221"
      }
    ],
    "short_name": "РМФ",
    "teachers": [
      {
        "degree": 2,
        "fisrt_name": "Д",
        "full_name": "Черній Д.І.",
        "last_name": "Черній",
        "middle_name": "І"
      }
    ],
    "time": "10:00"
  },
  {
    "course": "4",
    "date": "08.04.2019",
    "format": 1,
    "group": "4 САТР",
    "name": "Бази даних та інформаційні системи",
    "room_data": [
      {
        "housing": null,
        "room_floor": null,
        "room_num": "705"
      }
    ],
    "short_name": "БДІС",
    "teachers": [
      {
        "degree": 2,
        "fisrt_name": "І",
        "full_name": "Завадський І.О.",
        "last_name": "Завадський",
        "middle_name": "О"
      }
    ],
    "time": "12:00"
  },
  {
    "course": "4",
    "date": "09.04.2019",
    "format": 1,
    "group": "4 САТР",
    "name": "Вибрані розділи трудового права і основ підприємницької діяльності",
    "room_data": [
      {
        "housing": null,
        "room_floor": null,
        "room_num": "221"
      }
    ],
    "short_name": "ВРТПОПД",
    "teachers": [
      {
        "degree": 4,
        "fisrt_name": "Г",
        "full_name": "Кузьменко Г.В.",
        "last_name": "Кузьменко",
        "middle_name": "В"
      },
      {
        "degree": 2,
        "fisrt_name": "О",
        "full_name": "Богуславський О.В.",
        "last_name": "Богуславський",
        "middle_name": "В"
      }
    ],
    "time": "12:00"
  },
  {
    "course": "4",
    "date": "10.04.2019",
    "format": 1,
    "group": "4 САТР",
    "name": "Соціально-політичні студії",
    "room_data": [
      {
        "housing": null,
        "room_floor": null,
        "room_num": "305"
      }
    ],
    "short_name": "СС",
    "teachers": [
      {
        "degree": 2,
        "fisrt_name": "М",
        "full_name": "Каращук М.Г.",
        "last_name": "Каращук",
        "middle_name": "Г"
      },
      {
        "degree": 4,
        "fisrt_name": "А",
        "full_name": "Тащенко А.Ю.",
        "last_name": "Тащенко",
        "middle_name": "Ю"
      }
    ],
    "time": "9:00"
  },
  {
    "course": "4",
    "date": "11.04.2019",
    "format": 1,
    "group": "4 САТР",
    "name": "Рівняння математичної фізики",
    "room_data": [
      {
        "housing": null,
        "room_floor": null,
        "room_num": "221"
      }
    ],
    "short_name": "РМФ",
    "teachers": [
      {
        "degree": 2,
        "fisrt_name": "Д",
        "full_name": "Черній Д.І.",
        "last_name": "Черній",
        "middle_name": "І"
      }
    ],
    "time": "10:00"
  },
  {
    "course": "4",
    "date": "08.04.2019",
    "format": 1,
    "group": "4 ТК",
    "name": "Природні людинокомп’ютерні інтерфейси",
    "room_data": [
      {
        "housing": null,
        "room_floor": null,
        "room_num": "36"
      }
    ],
    "short_name": "ПЛІ",
    "teachers": [
      {
        "degree": 3,
        "fisrt_name": "Ю",
        "full_name": "Крак Ю.В.",
        "last_name": "Крак",
        "middle_name": "В"
      }
    ],
    "time": "10:00"
  },
  {
    "course": "4",
    "date": "10.04.2019",
    "format": 1,
    "group": "4 ТК",
    "name": "Операційні системи з розподілом часу",
    "room_data": [
      {
        "housing": null,
        "room_floor": null,
        "room_num": "311"
      }
    ],
    "short_name": "ОСРЧ",
    "teachers": [
      {
        "degree": 4,
        "fisrt_name": "Ю",
        "full_name": "Коваль Ю.В.",
        "last_name": "Коваль",
        "middle_name": "В"
      }
    ],
    "time": "12:00"
  },
  {
    "course": "4",
    "date": "11.04.2019",
    "format": 1,
    "group": "4 ТК",
    "name": "Iнформаційні технології в менеджментi",
    "room_data": [
      {
        "housing": null,
        "room_floor": null,
        "room_num": "42"
      }
    ],
    "short_name": "IТМ",
    "teachers": [
      {
        "degree": 3,
        "fisrt_name": "І",
        "full_name": "Вергунова І.М.",
        "last_name": "Вергунова",
        "middle_name": "М"
      },
      {
        "degree": 2,
        "fisrt_name": "О",
        "full_name": "Тимашов О.О.",
        "last_name": "Тимашов",
        "middle_name": "О"
      }
    ],
    "time": "9:00"
  },
  {
    "course": "4",
    "date": "11.04.2019",
    "format": 1,
    "group": "4 ТК",
    "name": "Вибрані розділи трудового права і основ підприємницької діяльності",
    "room_data": [
      {
        "housing": null,
        "room_floor": null,
        "room_num": "311"
      }
    ],
    "short_name": "ВРТПОПД",
    "teachers": [
      {
        "degree": 4,
        "fisrt_name": "Г",
        "full_name": "Кузьменко Г.В.",
        "last_name": "Кузьменко",
        "middle_name": "В"
      },
      {
        "degree": 2,
        "fisrt_name": "О",
        "full_name": "Богуславський О.В.",
        "last_name": "Богуславський",
        "middle_name": "В"
      }
    ],
    "time": "10:00"
  },
  {
    "course": "4",
    "date": "08.04.2019",
    "format": 1,
    "group": "4 ТТП",
    "name": "Композиційна семантика SQL-подібних мов",
    "room_data": [
      {
        "housing": null,
        "room_floor": null,
        "room_num": "306"
      }
    ],
    "short_name": "КСSМ",
    "teachers": [
      {
        "degree": 3,
        "fisrt_name": "А",
        "full_name": "Яловець А.Л.",
        "last_name": "Яловець",
        "middle_name": "Л"
      }
    ],
    "time": "10:00"
  },
  {
    "course": "4",
    "date": "10.04.2019",
    "format": 1,
    "group": "4 ТТП",
    "name": "Коректність програм та логіки програмування",
    "room_data": [
      {
        "housing": null,
        "room_floor": null,
        "room_num": "309"
      }
    ],
    "short_name": "КПЛП",
    "teachers": [
      {
        "degree": 3,
        "fisrt_name": "М",
        "full_name": "Нікітченко М.С.",
        "last_name": "Нікітченко",
        "middle_name": "С"
      }
    ],
    "time": "9:00"
  },
  {
    "course": "4",
    "date": "11.04.2019",
    "format": 1,
    "group": "4 ТТП",
    "name": "Iнформаційні технології в менеджментi",
    "room_data": [
      {
        "housing": null,
        "room_floor": null,
        "room_num": "42"
      }
    ],
    "short_name": "IТМ",
    "teachers": [
      {
        "degree": 3,
        "fisrt_name": "І",
        "full_name": "Вергунова І.М.",
        "last_name": "Вергунова",
        "middle_name": "М"
      },
      {
        "degree": 2,
        "fisrt_name": "О",
        "full_name": "Тимашов О.О.",
        "last_name": "Тимашов",
        "middle_name": "О"
      }
    ],
    "time": "9:00"
  },
  {
    "course": "4",
    "date": "11.04.2019",
    "format": 1,
    "group": "4 ТТП",
    "name": "Вибрані розділи трудового права і основ підприємницької діяльності",
    "room_data": [
      {
        "housing": null,
        "room_floor": null,
        "room_num": "221"
      }
    ],
    "short_name": "ВРТПОПД",
    "teachers": [
      {
        "degree": 4,
        "fisrt_name": "Г",
        "full_name": "Кузьменко Г.В.",
        "last_name": "Кузьменко",
        "middle_name": "В"
      },
      {
        "degree": 2,
        "fisrt_name": "О",
        "full_name": "Богуславський О.В.",
        "last_name": "Богуславський",
        "middle_name": "В"
      }
    ],
    "time": "14:00"
  }
]
